{
    "code": "0",
    "data": {
        "recommendData": null,
        "searchData": {
            "doc": [
                {
                    "id": 23297,
                    "productInfo": {
                        "address": "武汉天地内CGV电影院旁",
                        "businessesDistrict": "武汉天地",
                        "cityId": 37,
                        "cuisineStyle": "酒吧",
                        "discountDesc": null,
                        "discountIconUrl": null,
                        "distance": "",
                        "highLigth": null,
                        "hostName": "yue酒吧",
                        "id": 23297,
                        "isHaveEquities": 0,
                        "isInterested": null,
                        "isJoinRedPacket": 0,
                        "latitude": null,
                        "linkUrl": null,
                        "logoUrl": null,
                        "longitude": null,
                        "packageDesc": "Yue酒吧多人畅饮 香槟气泡酒6支相送",
                        "packageIconUrl": "http://r.yhres.com/home/tag_tao@2x.png",
                        "picUrl": "http://p.yhres.com/meal/2016/06/16/1466042835499.JPG-rq75h",
                        "price": null,
                        "priceStr": null,
                        "publicityWord": null,
                        "tagArr": [
                            "套餐"
                        ],
                        "title": "yue酒吧",
                        "vipEqsTag": ""
                    },
                    "productType": 3
                },
                {
                    "id": 24609,
                    "productInfo": {
                        "address": "青年路308号花园道商业街B101(西北湖正门口）",
                        "businessesDistrict": "西北湖",
                        "cityId": 37,
                        "cuisineStyle": "酒吧",
                        "discountDesc": null,
                        "discountIconUrl": null,
                        "distance": "",
                        "highLigth": null,
                        "hostName": "Bounty “邦缇”西餐酒吧(花园道店) ",
                        "id": 24609,
                        "isHaveEquities": 0,
                        "isInterested": null,
                        "isJoinRedPacket": 0,
                        "latitude": null,
                        "linkUrl": null,
                        "logoUrl": null,
                        "longitude": null,
                        "packageDesc": "加勒比海盗风格的小酒馆 朗姆酒与进口安格斯西冷扒的美妙结合",
                        "packageIconUrl": "http://r.yhres.com/home/tag_tao@2x.png",
                        "picUrl": "http://p.yhres.com/meal/2016/09/05/1473059941363.JPG-rq75h",
                        "price": 150,
                        "priceStr": "150元",
                        "publicityWord": null,
                        "tagArr": [
                            "套餐"
                        ],
                        "title": "Bounty “邦缇”西餐酒吧(花园道店) ",
                        "vipEqsTag": ""
                    },
                    "productType": 3
                },
                {
                    "id": 22959,
                    "productInfo": {
                        "address": "武汉市江岸区高雄路118号4号商铺",
                        "businessesDistrict": "解放公园",
                        "cityId": 37,
                        "cuisineStyle": "酒吧",
                        "discountDesc": null,
                        "discountIconUrl": null,
                        "distance": "",
                        "highLigth": null,
                        "hostName": "33号啤酒屋",
                        "id": 22959,
                        "isHaveEquities": 0,
                        "isInterested": null,
                        "isJoinRedPacket": 0,
                        "latitude": null,
                        "linkUrl": null,
                        "logoUrl": null,
                        "longitude": null,
                        "packageDesc": null,
                        "packageIconUrl": null,
                        "picUrl": "http://p.yhres.com/hostInfo/2016/10/20/1476936175032972.JPG-rq75h",
                        "price": null,
                        "priceStr": null,
                        "publicityWord": null,
                        "tagArr": [],
                        "title": "33号啤酒屋",
                        "vipEqsTag": ""
                    },
                    "productType": 3
                },
                {
                    "id": 169785,
                    "productInfo": {
                        "address": "江汉经济开发区园博园东路特号汉口里4-3-1号",
                        "businessesDistrict": "古田路",
                        "cityId": 37,
                        "cuisineStyle": "酒吧",
                        "discountDesc": null,
                        "discountIconUrl": null,
                        "distance": "",
                        "highLigth": null,
                        "hostName": "VOX酒吧(园博园汉口里店)",
                        "id": 169785,
                        "isHaveEquities": 0,
                        "isInterested": null,
                        "isJoinRedPacket": 0,
                        "latitude": null,
                        "linkUrl": null,
                        "logoUrl": null,
                        "longitude": null,
                        "packageDesc": null,
                        "packageIconUrl": null,
                        "picUrl": "http://p.yhres.com/hostInfo/2017/03/02/1488437615112840.jpg-rq75h",
                        "price": 65,
                        "priceStr": "65元",
                        "publicityWord": null,
                        "tagArr": [],
                        "title": "VOX酒吧(园博园汉口里店)",
                        "vipEqsTag": ""
                    },
                    "productType": 3
                },
                {
                    "id": 169936,
                    "productInfo": {
                        "address": "南湖雅安街南湖都会B区负一层5号",
                        "businessesDistrict": "南湖花园",
                        "cityId": 37,
                        "cuisineStyle": "酒吧",
                        "discountDesc": null,
                        "discountIconUrl": null,
                        "distance": "",
                        "highLigth": null,
                        "hostName": "onepiece醺音乐吧(雅安街店)",
                        "id": 169936,
                        "isHaveEquities": 0,
                        "isInterested": null,
                        "isJoinRedPacket": 0,
                        "latitude": null,
                        "linkUrl": null,
                        "logoUrl": null,
                        "longitude": null,
                        "packageDesc": null,
                        "packageIconUrl": null,
                        "picUrl": "http://p.yhres.com/hostInfo/2017/03/03/1488547817121952.jpg-rq75h",
                        "price": 58,
                        "priceStr": "58元",
                        "publicityWord": null,
                        "tagArr": [],
                        "title": "onepiece醺音乐吧(雅安街店)",
                        "vipEqsTag": ""
                    },
                    "productType": 3
                },
                {
                    "id": 66472,
                    "productInfo": {
                        "address": "界立方后街1-4",
                        "businessesDistrict": "客运港/江滩",
                        "cityId": 37,
                        "cuisineStyle": "酒吧",
                        "discountDesc": null,
                        "discountIconUrl": null,
                        "distance": "",
                        "highLigth": null,
                        "hostName": "丸顶居酒屋",
                        "id": 66472,
                        "isHaveEquities": 0,
                        "isInterested": null,
                        "isJoinRedPacket": 0,
                        "latitude": null,
                        "linkUrl": null,
                        "logoUrl": null,
                        "longitude": null,
                        "packageDesc": null,
                        "packageIconUrl": null,
                        "picUrl": "http://p.yhres.com/hostInfo/2016/12/28/1482909287890477.png-rq75h",
                        "price": 101,
                        "priceStr": "101元",
                        "publicityWord": null,
                        "tagArr": [],
                        "title": "丸顶居酒屋",
                        "vipEqsTag": ""
                    },
                    "productType": 3
                },
                {
                    "id": 170262,
                    "productInfo": {
                        "address": "汉口京汉大道大智路京汉1903E01商铺",
                        "businessesDistrict": "港澳台风情街",
                        "cityId": 37,
                        "cuisineStyle": "酒吧",
                        "discountDesc": null,
                        "discountIconUrl": null,
                        "distance": "",
                        "highLigth": null,
                        "hostName": "气泡实验室Bubble Lab(京汉1903店)",
                        "id": 170262,
                        "isHaveEquities": 0,
                        "isInterested": null,
                        "isJoinRedPacket": 0,
                        "latitude": null,
                        "linkUrl": null,
                        "logoUrl": null,
                        "longitude": null,
                        "packageDesc": null,
                        "packageIconUrl": null,
                        "picUrl": "http://p.yhres.com/hostInfo/2017/02/16/1487237795400796.jpg-rq75h",
                        "price": 86,
                        "priceStr": "86元",
                        "publicityWord": null,
                        "tagArr": [],
                        "title": "气泡实验室Bubble Lab(京汉1903店)",
                        "vipEqsTag": ""
                    },
                    "productType": 3
                },
                {
                    "id": 57081,
                    "productInfo": {
                        "address": "汉口胜利街217号",
                        "businessesDistrict": "客运港/江滩",
                        "cityId": 37,
                        "cuisineStyle": "酒吧",
                        "discountDesc": null,
                        "discountIconUrl": null,
                        "distance": "",
                        "highLigth": null,
                        "hostName": "王大小姐艺术酒馆",
                        "id": 57081,
                        "isHaveEquities": 0,
                        "isInterested": null,
                        "isJoinRedPacket": 0,
                        "latitude": null,
                        "linkUrl": null,
                        "logoUrl": null,
                        "longitude": null,
                        "packageDesc": null,
                        "packageIconUrl": null,
                        "picUrl": "http://p.yhres.com/hostInfo/2016/12/26/1482735558599394.png-rq75h",
                        "price": 70,
                        "priceStr": "70元",
                        "publicityWord": null,
                        "tagArr": [],
                        "title": "王大小姐艺术酒馆",
                        "vipEqsTag": ""
                    },
                    "productType": 3
                },
                {
                    "id": 65028,
                    "productInfo": {
                        "address": "京汉大道257号",
                        "businessesDistrict": "江汉路步行街",
                        "cityId": 37,
                        "cuisineStyle": "酒吧",
                        "discountDesc": null,
                        "discountIconUrl": null,
                        "distance": "",
                        "highLigth": null,
                        "hostName": "舞秀娱乐CLUB(京汉大道店257号)",
                        "id": 65028,
                        "isHaveEquities": 0,
                        "isInterested": null,
                        "isJoinRedPacket": 0,
                        "latitude": null,
                        "linkUrl": null,
                        "logoUrl": null,
                        "longitude": null,
                        "packageDesc": null,
                        "packageIconUrl": null,
                        "picUrl": "http://p.yhres.com/hostInfo/2016/12/27/1482833003933033.png-rq75h",
                        "price": 79,
                        "priceStr": "79元",
                        "publicityWord": null,
                        "tagArr": [],
                        "title": "舞秀娱乐CLUB(京汉大道店257号)",
                        "vipEqsTag": ""
                    },
                    "productType": 3
                },
                {
                    "id": 90147,
                    "productInfo": {
                        "address": "万松园路西园商业街2层B11",
                        "businessesDistrict": "武汉广场",
                        "cityId": 37,
                        "cuisineStyle": "酒吧",
                        "discountDesc": null,
                        "discountIconUrl": null,
                        "distance": "",
                        "highLigth": null,
                        "hostName": "Helens(武汉西园店)",
                        "id": 90147,
                        "isHaveEquities": 0,
                        "isInterested": null,
                        "isJoinRedPacket": 0,
                        "latitude": null,
                        "linkUrl": null,
                        "logoUrl": null,
                        "longitude": null,
                        "packageDesc": null,
                        "packageIconUrl": null,
                        "picUrl": "http://p.yhres.com/hostInfo/2017/01/04/1483536937616627.png-rq75h",
                        "price": 50,
                        "priceStr": "50元",
                        "publicityWord": null,
                        "tagArr": [],
                        "title": "Helens(武汉西园店)",
                        "vipEqsTag": ""
                    },
                    "productType": 3
                },
                {
                    "id": 29526,
                    "productInfo": {
                        "address": "青年路308号花园道艺术区C111",
                        "businessesDistrict": "西北湖",
                        "cityId": 37,
                        "cuisineStyle": "酒吧",
                        "discountDesc": null,
                        "discountIconUrl": null,
                        "distance": "",
                        "highLigth": null,
                        "hostName": "A+ Live 音乐现场(花园道店)",
                        "id": 29526,
                        "isHaveEquities": 0,
                        "isInterested": null,
                        "isJoinRedPacket": 0,
                        "latitude": null,
                        "linkUrl": null,
                        "logoUrl": null,
                        "longitude": null,
                        "packageDesc": null,
                        "packageIconUrl": null,
                        "picUrl": "http://p.yhres.com/hostInfo/2016/10/14/1476423504684981.jpg-rq75h",
                        "price": 185,
                        "priceStr": "185元",
                        "publicityWord": null,
                        "tagArr": [
                            "促"
                        ],
                        "title": "A+ Live 音乐现场(花园道店)",
                        "vipEqsTag": ""
                    },
                    "productType": 3
                },
                {
                    "id": 169895,
                    "productInfo": {
                        "address": "京汉大道万科金色家园二期Loft302号铺",
                        "businessesDistrict": "江汉路步行街",
                        "cityId": 37,
                        "cuisineStyle": "酒吧",
                        "discountDesc": null,
                        "discountIconUrl": null,
                        "distance": "",
                        "highLigth": null,
                        "hostName": "马天尼鸡尾酒主题吧",
                        "id": 169895,
                        "isHaveEquities": 0,
                        "isInterested": null,
                        "isJoinRedPacket": 0,
                        "latitude": null,
                        "linkUrl": null,
                        "logoUrl": null,
                        "longitude": null,
                        "packageDesc": null,
                        "packageIconUrl": null,
                        "picUrl": "http://p.yhres.com/hostInfo/2017/03/03/1488524791414492.jpg-rq75h",
                        "price": 90,
                        "priceStr": "90元",
                        "publicityWord": null,
                        "tagArr": [],
                        "title": "马天尼鸡尾酒主题吧",
                        "vipEqsTag": ""
                    },
                    "productType": 3
                },
                {
                    "id": 54071,
                    "productInfo": {
                        "address": "武昌鲁磨路118号国光大厦B座光大银行旁",
                        "businessesDistrict": "光谷/鲁巷",
                        "cityId": 37,
                        "cuisineStyle": "酒吧",
                        "discountDesc": null,
                        "discountIconUrl": null,
                        "distance": "",
                        "highLigth": null,
                        "hostName": "VOX LIVEHOUSE(武昌光谷店)",
                        "id": 54071,
                        "isHaveEquities": 0,
                        "isInterested": null,
                        "isJoinRedPacket": 0,
                        "latitude": null,
                        "linkUrl": null,
                        "logoUrl": null,
                        "longitude": null,
                        "packageDesc": null,
                        "packageIconUrl": null,
                        "picUrl": "http://p.yhres.com/hostInfo/2016/12/26/1482724919293220.png-rq75h",
                        "price": 54,
                        "priceStr": "54元",
                        "publicityWord": null,
                        "tagArr": [],
                        "title": "VOX LIVEHOUSE(武昌光谷店)",
                        "vipEqsTag": ""
                    },
                    "productType": 3
                }
            ],
            "isEnd": 0,
            "nextPage": 2,
            "page": 1,
            "pageSize": 10,
            "pid": "23297,24609,22959,169785,169936,66472,170262,57081,65028,90147",
            "totalRows": 27
        }
    },
    "detail": "",
    "message": "success"
}
