{
  "code": "0",
  "data": {
    "doc": [
      {
        "itemData": [
          {
            "id": 42,
            "menuHref": "yhouse://search?bizType=2&filter=33&catalog=33&sort=2",
            "menuIcon": "http://r.yhres.com/home/near@3x.png?v2",
            "menuName": "附近"
          },
          {
            "id": 40,
            "menuHref": "yhouse://search?bizType=2&filter=33&catalog=33&sort=3",
            "menuIcon": "http://r.yhres.com/home/new@3x.png?v2",
            "menuName": "最新"
          },
          {
            "id": 41,
            "menuHref": "yhouse://search?bizType=2&filter=33&catalog=33&sort=4",
            "menuIcon": "http://r.yhres.com/home/hot@3x.png?v2",
            "menuName": "最热"
          },
          {
            "id": 5,
            "menuHref": "yhouse://invitation2",
            "menuIcon": "http://r.yhres.com/home/invitationcard@3x.png?v3",
            "menuName": "电子请柬"
          }
        ],
        "itemLayout": 0,
        "itemType": 40
      },
      {
        "itemData": null,
        "itemLayout": 1,
        "itemType": 30
      },
      {
        "itemData": [
          {
            "content": "<p style=\"white-space:normal;\">\r\n\t放肆畅饮，酒精与味蕾碰撞出惊喜\r\n</p>\r\n<p style=\"white-space:normal;\">\r\n\t小酌一杯，耳边低吟浅唱惬意非常\r\n</p>\r\n<p style=\"white-space:normal;\">\r\n\t卸去一身疲惫最好的方法\r\n</p>\r\n<p style=\"white-space:normal;\">\r\n\t便是趁着夜色，寻一间酒吧完全放空\r\n</p>\r\n<p style=\"white-space:normal;\">\r\n\tYHOUSE为您指路城内潮人夜生活去处\r\n</p>\r\n<p style=\"white-space:normal;\">\r\n\t活着，就是为了痛饮\r\n</p>",
            "contentsNumStr": "15个商户",
            "description": "<p style=\"white-space:normal;\">\r\n\t放肆畅饮，酒精与味蕾碰撞出惊喜\r\n</p>\r\n<p style=\"white-space:normal;\">\r\n\t小酌一杯，耳边低吟浅唱惬意非常\r\n</p>\r\n<p style=\"white-space:normal;\">\r\n\t卸去一身疲惫最好的方法\r\n</p>\r\n<p style=\"white-space:normal;\">\r\n\t便是趁着夜色，寻一间酒吧完全放空\r\n</p>\r\n<p style=\"white-space:normal;\">\r\n\tYHOUSE为您指路城内潮人夜生活去处\r\n</p>\r\n<p style=\"white-space:normal;\">\r\n\t活着，就是为了痛饮\r\n</p>",
            "id": 4080,
            "isInterested": 0,
            "list": [
              {
                "bdAndCs": "西北湖·酒吧",
                "distance": 0,
                "icon": "http://p.yhres.com/meal/2016/09/05/1473059941363.JPG-sq75h",
                "isHaveEquities": 0,
                "link": "yhouse://host/24609",
                "price": "人均: 150元",
                "sort": 1,
                "tags": null,
                "title": "Bounty “邦缇”西餐酒吧(花园道店)"
              },
              {
                "bdAndCs": "客运港/江滩·酒吧",
                "distance": 0,
                "icon": "http://p.yhres.com/hostInfo/2016/10/17/1476675928940344.jpg-sq75h",
                "isHaveEquities": 0,
                "link": "yhouse://host/29788",
                "price": "人均: 83元",
                "sort": 2,
                "tags": null,
                "title": "18号酒馆"
              },
              {
                "bdAndCs": "水果湖·咖啡厅",
                "distance": 0,
                "icon": "http://p.yhres.com/hostInfo/2016/09/19/1474279856421441.jpg-sq75h",
                "isHaveEquities": 0,
                "link": "yhouse://host/34362",
                "price": "人均: 107元",
                "sort": 3,
                "tags": null,
                "title": "万达瑞华酒店大堂酒廊"
              },
              {
                "bdAndCs": "光谷/鲁巷·酒吧",
                "distance": 0,
                "icon": "http://p.yhres.com/hostInfo/2016/12/26/1482724919293220.png-sq75h",
                "isHaveEquities": 0,
                "link": "yhouse://host/54071",
                "price": "人均: 54元",
                "sort": 4,
                "tags": null,
                "title": "VOX LIVEHOUSE(武昌光谷店)"
              }
            ],
            "picUrl": "http://p.yhres.com/topic/2017/02/09/156745_1486613222954.jpg-q75",
            "sPicUrl": "http://p.yhres.com/topic/2017/02/09/156745_1486613222954.jpg-ssq75",
            "schemeUrl": "yhouse://topic/4080",
            "shareUrl": "http://m.yhouse.com/topic/4080?pk_campaign=share&pk_kwd=topic?pos=null&coordType=1",
            "title": "人气潮Bar",
            "viceTitle": "潮人夜生活去处"
          }
        ],
        "itemLayout": 2,
        "itemType": 20
      },
      {
        "itemData": [
          {
            "address": "青年路308号花园道商业街B101(西北湖正门口）",
            "businessesDistrict": "西北湖",
            "cityId": 37,
            "cuisineStyle": "酒吧",
            "discountDesc": null,
            "discountIconUrl": null,
            "distance": "",
            "highLigth": "加勒比海盗风格的小酒馆",
            "hostName": "Bounty “邦缇”西餐酒吧(花园道店) ",
            "id": 24609,
            "isHaveEquities": 0,
            "isInterested": 0,
            "isJoinRedPacket": 0,
            "latitude": "30.5959",
            "linkUrl": "yhouse://host/24609",
            "logoUrl": "http://p.yhres.com/hostInfo/2017/02/10/1486720583820375.png-ssq75",
            "longitude": "114.265625",
            "packageDesc": "加勒比海盗风格的小酒馆 朗姆酒与进口安格斯西冷扒的美妙结合",
            "packageIconUrl": "http://r.yhres.com/home/tag_tao@2x.png",
            "picUrl": "http://p.yhres.com/meal/2016/09/05/1473059941363.JPG-q75h",
            "price": 150,
            "priceStr": "人均: 150元",
            "publicityWord": "",
            "tagArr": [
              "套餐"
            ],
            "title": "Bounty “邦缇”西餐酒吧(花园道店) ",
            "vipEqsTag": ""
          },
          {
            "address": "武汉天地内CGV电影院旁",
            "businessesDistrict": "武汉天地",
            "cityId": 37,
            "cuisineStyle": "酒吧",
            "discountDesc": null,
            "discountIconUrl": null,
            "distance": "",
            "highLigth": "武汉天地小资美食圈文艺酒吧",
            "hostName": "yue酒吧",
            "id": 23297,
            "isHaveEquities": 0,
            "isInterested": 0,
            "isJoinRedPacket": 0,
            "latitude": "30.613021",
            "linkUrl": "yhouse://host/23297",
            "logoUrl": "http://p.yhres.com/host/2016/11/08/1478575443744576.jpg-ssq75",
            "longitude": "114.314218",
            "packageDesc": "Yue酒吧多人畅饮 香槟气泡酒6支相送",
            "packageIconUrl": "http://r.yhres.com/home/tag_tao@2x.png",
            "picUrl": "http://p.yhres.com/meal/2016/06/16/1466042835499.JPG-q75h",
            "price": null,
            "priceStr": null,
            "publicityWord": "",
            "tagArr": [
              "套餐"
            ],
            "title": "yue酒吧",
            "vipEqsTag": ""
          },
          {
            "address": "合作路界立方创意空间2楼",
            "businessesDistrict": "客运港/江滩",
            "cityId": 37,
            "cuisineStyle": "酒吧",
            "discountDesc": null,
            "discountIconUrl": null,
            "distance": "",
            "highLigth": "武汉单一麦芽威士忌俱乐部",
            "hostName": "液体空间",
            "id": 170180,
            "isHaveEquities": 0,
            "isInterested": 0,
            "isJoinRedPacket": 0,
            "latitude": "30.584077",
            "linkUrl": "yhouse://host/170180",
            "logoUrl": "",
            "longitude": "114.3",
            "packageDesc": null,
            "packageIconUrl": null,
            "picUrl": "http://p.yhres.com/hostInfo/2017/02/28/1488273477350419.png-q75h",
            "price": 99,
            "priceStr": "人均: 99元",
            "publicityWord": "",
            "tagArr": [],
            "title": "液体空间",
            "vipEqsTag": ""
          },
          {
            "address": "汉口京汉大道大智路京汉1903E01商铺",
            "businessesDistrict": "港澳台风情街",
            "cityId": 37,
            "cuisineStyle": "酒吧",
            "discountDesc": null,
            "discountIconUrl": null,
            "distance": "",
            "highLigth": "汇聚美酒和汉堡的精酿啤酒美式西餐厅",
            "hostName": "气泡实验室Bubble Lab(京汉1903店)",
            "id": 170262,
            "isHaveEquities": 0,
            "isInterested": 0,
            "isJoinRedPacket": 0,
            "latitude": "30.590258",
            "linkUrl": "yhouse://host/170262",
            "logoUrl": "",
            "longitude": "114.291866",
            "packageDesc": null,
            "packageIconUrl": null,
            "picUrl": "http://p.yhres.com/hostInfo/2017/02/16/1487237795400796.jpg-q75h",
            "price": 86,
            "priceStr": "人均: 86元",
            "publicityWord": "",
            "tagArr": [],
            "title": "气泡实验室Bubble Lab(京汉1903店)",
            "vipEqsTag": ""
          },
          {
            "address": "沿江大道兰陵路158号",
            "businessesDistrict": "客运港/江滩",
            "cityId": 37,
            "cuisineStyle": "酒吧",
            "discountDesc": null,
            "discountIconUrl": null,
            "distance": "",
            "highLigth": "全国连锁文艺小资酒吧",
            "hostName": "苏荷酒吧(SOHO店)",
            "id": 87860,
            "isHaveEquities": 0,
            "isInterested": 0,
            "isJoinRedPacket": 0,
            "latitude": "30.584783",
            "linkUrl": "yhouse://host/87860",
            "logoUrl": "http://p.yhres.com/hostInfo/2017/01/05/1483613104328671.jpg-ssq75",
            "longitude": "114.301442",
            "packageDesc": null,
            "packageIconUrl": null,
            "picUrl": "http://p.yhres.com/hostInfo/2017/01/04/1483540118250074.png-q75h",
            "price": 174,
            "priceStr": "人均: 174元",
            "publicityWord": "",
            "tagArr": [],
            "title": "苏荷酒吧(SOHO店)",
            "vipEqsTag": ""
          },
          {
            "address": "万松园路西园商业街2层B11",
            "businessesDistrict": "武汉广场",
            "cityId": 37,
            "cuisineStyle": "酒吧",
            "discountDesc": null,
            "discountIconUrl": null,
            "distance": "",
            "highLigth": "武汉十佳新兴酒吧",
            "hostName": "Helens(武汉西园店)",
            "id": 90147,
            "isHaveEquities": 0,
            "isInterested": 0,
            "isJoinRedPacket": 0,
            "latitude": "30.58572",
            "linkUrl": "yhouse://host/90147",
            "logoUrl": "http://p.yhres.com/hostInfo/2017/01/05/1483612185075808.jpg-ssq75",
            "longitude": "114.26938",
            "packageDesc": null,
            "packageIconUrl": null,
            "picUrl": "http://p.yhres.com/hostInfo/2017/01/04/1483536937616627.png-q75h",
            "price": 50,
            "priceStr": "人均: 50元",
            "publicityWord": "",
            "tagArr": [],
            "title": "Helens(武汉西园店)",
            "vipEqsTag": ""
          },
          {
            "address": "界立方后街1-4",
            "businessesDistrict": "客运港/江滩",
            "cityId": 37,
            "cuisineStyle": "酒吧",
            "discountDesc": null,
            "discountIconUrl": null,
            "distance": "",
            "highLigth": "地道正宗日式居酒屋",
            "hostName": "丸顶居酒屋",
            "id": 66472,
            "isHaveEquities": 0,
            "isInterested": 0,
            "isJoinRedPacket": 0,
            "latitude": "30.58351",
            "linkUrl": "yhouse://host/66472",
            "logoUrl": "http://p.yhres.com/hostInfo/2016/12/29/1482998794033794.jpg-ssq75",
            "longitude": "114.30058",
            "packageDesc": null,
            "packageIconUrl": null,
            "picUrl": "http://p.yhres.com/hostInfo/2016/12/28/1482909287890477.png-q75h",
            "price": 101,
            "priceStr": "人均: 101元",
            "publicityWord": "",
            "tagArr": [],
            "title": "丸顶居酒屋",
            "vipEqsTag": ""
          },
          {
            "address": "融科天城3期A35商铺（球场街派出所斜对面）",
            "businessesDistrict": "解放公园",
            "cityId": 37,
            "cuisineStyle": "酒吧",
            "discountDesc": null,
            "discountIconUrl": null,
            "distance": "",
            "highLigth": "武汉特色的自酿IPA",
            "hostName": "bobobeer精酿啤酒馆",
            "id": 67496,
            "isHaveEquities": 0,
            "isInterested": 0,
            "isJoinRedPacket": 0,
            "latitude": "30.598022",
            "linkUrl": "yhouse://host/67496",
            "logoUrl": "http://p.yhres.com/hostInfo/2016/12/29/1482998355755043.jpg-ssq75",
            "longitude": "114.298757",
            "packageDesc": null,
            "packageIconUrl": null,
            "picUrl": "http://p.yhres.com/hostInfo/2016/12/28/1482906058874051.png-q75h",
            "price": 57,
            "priceStr": "人均: 57元",
            "publicityWord": "",
            "tagArr": [],
            "title": "bobobeer精酿啤酒馆",
            "vipEqsTag": ""
          },
          {
            "address": "铁机路5-19号橡树湾商业街2-16号",
            "businessesDistrict": "武昌火车站",
            "cityId": 37,
            "cuisineStyle": "酒吧",
            "discountDesc": null,
            "discountIconUrl": null,
            "distance": "",
            "highLigth": "低调文艺小酒馆",
            "hostName": "酷先森进口啤酒(余家头体验店)",
            "id": 67482,
            "isHaveEquities": 0,
            "isInterested": 0,
            "isJoinRedPacket": 0,
            "latitude": "30.608262",
            "linkUrl": "yhouse://host/67482",
            "logoUrl": "http://p.yhres.com/hostInfo/2016/12/29/1482998697836255.jpg-ssq75",
            "longitude": "114.347735",
            "packageDesc": null,
            "packageIconUrl": null,
            "picUrl": "http://p.yhres.com/hostInfo/2016/12/28/1482908502774835.png-q75h",
            "price": 52,
            "priceStr": "人均: 52元",
            "publicityWord": "",
            "tagArr": [],
            "title": "酷先森进口啤酒(余家头体验店)",
            "vipEqsTag": ""
          },
          {
            "address": "京汉大道257号",
            "businessesDistrict": "江汉路步行街",
            "cityId": 37,
            "cuisineStyle": "酒吧",
            "discountDesc": null,
            "discountIconUrl": null,
            "distance": "",
            "highLigth": "蓝天歌剧院改造的高档酒吧",
            "hostName": "舞秀娱乐CLUB(京汉大道店257号)",
            "id": 65028,
            "isHaveEquities": 0,
            "isInterested": 0,
            "isJoinRedPacket": 0,
            "latitude": "30.584049",
            "linkUrl": "yhouse://host/65028",
            "logoUrl": "http://p.yhres.com/hostInfo/2016/12/28/1482908752394444.jpg-ssq75",
            "longitude": "114.284896",
            "packageDesc": null,
            "packageIconUrl": null,
            "picUrl": "http://p.yhres.com/hostInfo/2016/12/27/1482833003933033.png-q75h",
            "price": 79,
            "priceStr": "人均: 79元",
            "publicityWord": "",
            "tagArr": [],
            "title": "舞秀娱乐CLUB(京汉大道店257号)",
            "vipEqsTag": ""
          }
        ],
        "itemLayout": 3,
        "itemType": 7
      }
    ],
    "extraData": {
      "rocket": {
        "reserveBanner": [],
        "reserveList": [
          {
            "adsName": "reserveList",
            "position": 1,
            "content": [
              {
                "actual": false,
                "xsort": 1,
                "schemeUrl": "yhouse://topic/4061",
                "pvUrl": null,
                "description": null,
                "title": "当你想喝小酒的时候应该去哪",
                "linkName": "TOPIC",
                "picUrl": "http://p.yhres.com/topic/2017/02/09/156745_1486610698747.jpg-q75",
                "linkId": 4061,
                "linkUrl": "/topic/4061",
                "linkType": 6,
                "id": 0,
                "sPicUrl": "http://p.yhres.com/topic/2017/02/09/156745_1486610698747.jpg-ssq75"
              }
            ]
          }
        ]
      }
    },
    "isEnd": 0,
    "nextPage": 2,
    "page": 1,
    "pageSize": 10,
    "pid": "24609,23297,170180,170262,87860,90147,66472,67496,67482,65028",
    "totalRows": 17
  },
  "detail": "",
  "message": "success"
}