{
  "code": "0",
  "data": {
    "doc": [
      {
        "itemData": [
          {
            "id": 26,
            "menuHref": "yhouse://search?bizType=1&catalog=1&sort=2",
            "menuIcon": "http://r.yhres.com/home/near@3x.png?v2",
            "menuName": "附近"
          },
          {
            "id": 24,
            "menuHref": "yhouse://search?bizType=1&catalog=1&sort=3",
            "menuIcon": "http://r.yhres.com/home/new@3x.png?v2",
            "menuName": "新品"
          },
          {
            "id": 25,
            "menuHref": "yhouse://search?bizType=1&catalog=1&sort=4",
            "menuIcon": "http://r.yhres.com/home/hot@3x.png?v3",
            "menuName": "最热"
          },
          {
            "id": 27,
            "menuHref": "yhouse://search?bizType=1&catalog=1&filter=2&dt=1",
            "menuIcon": "http://r.yhres.com/home/weekend@3x.png?v2",
            "menuName": "周末"
          },
          {
            "id": 5,
            "menuHref": "yhouse://invitation2",
            "menuIcon": "http://r.yhres.com/home/invitationcard@3x.png?v3",
            "menuName": "电子请柬"
          }
        ],
        "itemLayout": 0,
        "itemType": 40
      },
      {
        "itemData": [
          {
            "layout": 2,
            "adsName": "bundle",
            "id": 56,
            "position": 1,
            "content": [
              {
                "picUrl": "http://p.yhres.com/bundle/2017/02/21/1487673397623662.png-q75",
                "linkId": 4244,
                "linkUrl": "/topic/4244",
                "schemeUrl": "yhouse://topic/4244",
                "linkType": 6,
                "id": 0,
                "title": "时下最流行",
                "sPicUrl": "http://p.yhres.com/bundle/2017/02/21/1487673397623662.png-ssq75",
                "linkName": "TOPIC"
              },
              {
                "picUrl": "http://p.yhres.com/bundle/2017/02/21/1487673397672970.png-q75",
                "linkId": 4248,
                "linkUrl": "/topic/4248",
                "schemeUrl": "yhouse://topic/4248",
                "linkType": 6,
                "id": 0,
                "title": "游玩大作战",
                "sPicUrl": "http://p.yhres.com/bundle/2017/02/21/1487673397672970.png-ssq75",
                "linkName": "TOPIC"
              }
            ]
          }
        ],
        "itemLayout": 1,
        "itemType": 30
      },
      {
        "itemData": [
          {
            "address": "江汉区解放大道630号新世界酒店6楼会所",
            "ageScope": null,
            "applyExpiredTime": "2017-12-31 12:00",
            "categoryIconUrl": "http://r.yhres.com/category/banner/fashion.png",
            "categoryId": 1,
            "categorys": [
              "时尚生活"
            ],
            "cityName": "武汉",
            "dataType": 1,
            "distance": "",
            "district": "武汉",
            "duration": "02.20 - 12.31 23:59",
            "hostName": "Allinfit私人健身俱乐部(新世界酒店店)",
            "id": 15078,
            "isFree": 2,
            "isHaveEquities": 0,
            "isInterested": 0,
            "isOnlineTimeNew": null,
            "latitude": "30.579073",
            "linkUrl": "yhouse://event/15078",
            "longitude": "114.266337",
            "maxNum": 99,
            "neededCredits": "880元/1人",
            "originalPrice": null,
            "picUrl": "http://p.yhres.com/event/2017/02/21/1487674126510151.jpg-q75h",
            "recommand": 1,
            "sPicUrl": "http://p.yhres.com/event/2017/02/21/1487674126510151.jpg-ssq75",
            "supportDiscount": 1,
            "tag": "运动",
            "title": "7天急速瘦身训练营开始招募",
            "typeIcon": "http://r.yhres.com/category/banner/event.png",
            "vipEqsTag": ""
          },
          {
            "address": "江汉区解放大道630号新世界酒店6楼会所",
            "ageScope": null,
            "applyExpiredTime": "2017-12-31 12:00",
            "categoryIconUrl": "http://r.yhres.com/category/banner/fashion.png",
            "categoryId": 1,
            "categorys": [
              "时尚生活"
            ],
            "cityName": "武汉",
            "dataType": 1,
            "distance": "",
            "district": "武汉",
            "duration": "02.20 - 12.31 23:59",
            "hostName": "Allinfit私人健身俱乐部(新世界酒店店)",
            "id": 15079,
            "isFree": 2,
            "isHaveEquities": 0,
            "isInterested": 0,
            "isOnlineTimeNew": null,
            "latitude": "30.579073",
            "linkUrl": "yhouse://event/15079",
            "longitude": "114.266337",
            "maxNum": 99,
            "neededCredits": "680元/1人",
            "originalPrice": null,
            "picUrl": "http://p.yhres.com/event/2017/02/21/1487645612705943.jpg-q75h",
            "recommand": 1,
            "sPicUrl": "http://p.yhres.com/event/2017/02/21/1487645612705943.jpg-ssq75",
            "supportDiscount": 1,
            "tag": "运动",
            "title": "私人健身一周体验限时招募",
            "typeIcon": "http://r.yhres.com/category/banner/event.png",
            "vipEqsTag": ""
          },
          {
            "address": "江汉区解放大道630号新世界酒店6楼会所",
            "ageScope": null,
            "applyExpiredTime": "2017-12-31 12:00",
            "categoryIconUrl": "http://r.yhres.com/category/banner/fashion.png",
            "categoryId": 1,
            "categorys": [
              "时尚生活"
            ],
            "cityName": "武汉",
            "dataType": 1,
            "distance": "",
            "district": "武汉",
            "duration": "02.20 - 12.31 23:59",
            "hostName": "Allinfit私人健身俱乐部(新世界酒店店)",
            "id": 15080,
            "isFree": 2,
            "isHaveEquities": 0,
            "isInterested": 0,
            "isOnlineTimeNew": null,
            "latitude": "30.579073",
            "linkUrl": "yhouse://event/15080",
            "longitude": "114.266337",
            "maxNum": 99,
            "neededCredits": "38元/1人",
            "originalPrice": null,
            "picUrl": "http://p.yhres.com/event/2017/02/21/1487657996534283.jpg-q75h",
            "recommand": 1,
            "sPicUrl": "http://p.yhres.com/event/2017/02/21/1487657996534283.jpg-ssq75",
            "supportDiscount": 1,
            "tag": "运动",
            "title": "单人健身课程1次",
            "typeIcon": "http://r.yhres.com/category/banner/event.png",
            "vipEqsTag": ""
          },
          {
            "address": "武汉市东西湖环湖中路金银湖府上心斋桥T6-2(靠近武汉奥林匹克公园)",
            "ageScope": null,
            "applyExpiredTime": "2018-01-17 00:00",
            "categoryIconUrl": "http://r.yhres.com/category/banner/fashion.png",
            "categoryId": 1,
            "categorys": [
              "时尚生活"
            ],
            "cityName": "武汉",
            "dataType": 1,
            "distance": "",
            "district": "金银湖",
            "duration": "01.19 - 01.18",
            "hostName": "798club轰趴馆(汉口金银湖别墅会所)",
            "id": 14995,
            "isFree": 2,
            "isHaveEquities": 0,
            "isInterested": 0,
            "isOnlineTimeNew": null,
            "latitude": "30.674248",
            "linkUrl": "yhouse://event/14995",
            "longitude": "114.207594",
            "maxNum": 99,
            "neededCredits": "1998元起/20人",
            "originalPrice": null,
            "picUrl": "http://p.yhres.com/event/2017/01/19/1484809206902102.jpg-q75h",
            "recommand": 1,
            "sPicUrl": "http://p.yhres.com/event/2017/01/19/1484809206902102.jpg-ssq75",
            "supportDiscount": 1,
            "tag": "轰趴,别墅",
            "title": "798club汉口金银湖高端别墅聚会轰趴館",
            "typeIcon": "http://r.yhres.com/category/banner/event.png",
            "vipEqsTag": ""
          },
          {
            "address": "西园商业街2楼A-39号/汉阳经济技术开发区万达广场二楼2085A/中山大道凯德广场4楼0418号/赛博数码广场负一楼",
            "ageScope": null,
            "applyExpiredTime": "2017-10-23 23:59",
            "categoryIconUrl": "http://r.yhres.com/category/banner/fashion.png",
            "categoryId": 1,
            "categorys": [
              "时尚生活"
            ],
            "cityName": "武汉",
            "dataType": 1,
            "distance": "",
            "district": "经开万达",
            "duration": "10.24 - 10.24",
            "hostName": "VR VThree虚拟现实体验馆(广埠屯店)",
            "id": 14405,
            "isFree": 2,
            "isHaveEquities": 0,
            "isInterested": 0,
            "isOnlineTimeNew": null,
            "latitude": "30.569332",
            "linkUrl": "yhouse://event/14405",
            "longitude": "114.268016",
            "maxNum": 99,
            "neededCredits": "120元/1人",
            "originalPrice": null,
            "picUrl": "http://p.yhres.com/event/2016/10/25/1477386249516098.png-q75h",
            "recommand": 1,
            "sPicUrl": "http://p.yhres.com/event/2016/10/25/1477386249516098.png-ssq75",
            "supportDiscount": 1,
            "tag": "VR",
            "title": "畅玩100多款VR虚拟游戏 单人老友记套餐",
            "typeIcon": "http://r.yhres.com/category/banner/event.png",
            "vipEqsTag": ""
          },
          {
            "address": "武汉市汉阳区龟北路1号汉阳造文化创意产业园27栋",
            "ageScope": null,
            "applyExpiredTime": "2017-04-13 00:00",
            "categoryIconUrl": "http://r.yhres.com/category/banner/art.png",
            "categoryId": 4,
            "categorys": [
              "文化艺术"
            ],
            "cityName": "武汉",
            "dataType": 1,
            "distance": "",
            "district": "汉阳造创意文化园",
            "duration": "10.25 - 04.13 10:00",
            "hostName": "一熹艺术馆",
            "id": 14418,
            "isFree": 2,
            "isHaveEquities": 0,
            "isInterested": 0,
            "isOnlineTimeNew": null,
            "latitude": "30.55847",
            "linkUrl": "yhouse://event/14418",
            "longitude": "114.266831",
            "maxNum": 99,
            "neededCredits": "133元/1人",
            "originalPrice": null,
            "picUrl": "http://p.yhres.com/event/2016/10/25/1477388554322088.jpg-q75h",
            "recommand": 1,
            "sPicUrl": "http://p.yhres.com/event/2016/10/25/1477388554322088.jpg-ssq75",
            "supportDiscount": 1,
            "tag": "陶瓷，艺术",
            "title": "自制陶器 禅意艺术馆体验陶艺乐趣",
            "typeIcon": "http://r.yhres.com/category/banner/event.png",
            "vipEqsTag": ""
          },
          {
            "address": "武汉市汉阳区龟北路1号汉阳造文化创意产业园27栋",
            "ageScope": null,
            "applyExpiredTime": "2017-04-13 00:00",
            "categoryIconUrl": "http://r.yhres.com/category/banner/art.png",
            "categoryId": 4,
            "categorys": [
              "文化艺术"
            ],
            "cityName": "武汉",
            "dataType": 1,
            "distance": "",
            "district": "汉阳造创意文化园",
            "duration": "10.25 - 04.13 10:00",
            "hostName": "一熹艺术馆",
            "id": 14421,
            "isFree": 2,
            "isHaveEquities": 0,
            "isInterested": 0,
            "isOnlineTimeNew": null,
            "latitude": "30.55847",
            "linkUrl": "yhouse://event/14421",
            "longitude": "114.266831",
            "maxNum": 99,
            "neededCredits": "88元/1人",
            "originalPrice": null,
            "picUrl": "http://p.yhres.com/event/2016/10/25/1477390816311680.jpg-q75h",
            "recommand": 1,
            "sPicUrl": "http://p.yhres.com/event/2016/10/25/1477390816311680.jpg-ssq75",
            "supportDiscount": 1,
            "tag": "陶瓷，艺术，绘画",
            "title": "陶瓷彩绘 随心所欲表达艺术才华",
            "typeIcon": "http://r.yhres.com/category/banner/event.png",
            "vipEqsTag": ""
          },
          {
            "address": "湖北美术学院6号楼地铁2号线螃蟹甲站",
            "ageScope": null,
            "applyExpiredTime": "2017-10-13 18:00",
            "categoryIconUrl": "http://r.yhres.com/category/banner/art.png",
            "categoryId": 4,
            "categorys": [
              "文化艺术"
            ],
            "cityName": "武汉",
            "dataType": 1,
            "distance": "",
            "district": "武汉",
            "duration": "10.13 10:00 - 10.13 18:30",
            "hostName": "小羽绘画",
            "id": 14355,
            "isFree": 2,
            "isHaveEquities": 0,
            "isInterested": 0,
            "isOnlineTimeNew": null,
            "latitude": "39.983559",
            "linkUrl": "yhouse://event/14355",
            "longitude": "116.463876",
            "maxNum": 99,
            "neededCredits": "128元/1人",
            "originalPrice": null,
            "picUrl": "http://p.yhres.com/event/2016/04/14/156667_1460622302172.jpg-q75h",
            "recommand": 1,
            "sPicUrl": "http://p.yhres.com/event/2016/04/14/156667_1460622302172.jpg-ssq75",
            "supportDiscount": 1,
            "tag": "油画,课程",
            "title": "画的玩.自助油画",
            "typeIcon": "http://r.yhres.com/category/banner/event.png",
            "vipEqsTag": ""
          },
          {
            "address": "湖北美术学院6号楼地铁2号线螃蟹甲站",
            "ageScope": null,
            "applyExpiredTime": "2017-10-13 18:00",
            "categoryIconUrl": "http://r.yhres.com/category/banner/art.png",
            "categoryId": 4,
            "categorys": [
              "文化艺术"
            ],
            "cityName": "武汉",
            "dataType": 1,
            "distance": "",
            "district": "武汉",
            "duration": "10.13 10:00 - 10.13 18:30",
            "hostName": "小羽绘画",
            "id": 14356,
            "isFree": 2,
            "isHaveEquities": 0,
            "isInterested": 0,
            "isOnlineTimeNew": null,
            "latitude": "39.983559",
            "linkUrl": "yhouse://event/14356",
            "longitude": "116.463876",
            "maxNum": 99,
            "neededCredits": "118元/1人",
            "originalPrice": null,
            "picUrl": "http://p.yhres.com/event/2016/10/19/1476871275515397.jpg-q75h",
            "recommand": 1,
            "sPicUrl": "http://p.yhres.com/event/2016/10/19/1476871275515397.jpg-ssq75",
            "supportDiscount": 1,
            "tag": "油画,课程",
            "title": "想怎么画就怎么画 任性学画画",
            "typeIcon": "http://r.yhres.com/category/banner/event.png",
            "vipEqsTag": ""
          },
          {
            "address": "京汉大道123号万科金色家园二期",
            "ageScope": null,
            "applyExpiredTime": "2017-10-11 16:00",
            "categoryIconUrl": "http://r.yhres.com/category/banner/other.png",
            "categoryId": 6,
            "categorys": [
              "探索其他"
            ],
            "cityName": "武汉",
            "dataType": 1,
            "distance": "",
            "district": "武汉",
            "duration": "10.19 - 10.11 23:59",
            "hostName": "俱乐部俱乐部",
            "id": 14359,
            "isFree": 2,
            "isHaveEquities": 0,
            "isInterested": 0,
            "isOnlineTimeNew": null,
            "latitude": "30.581564",
            "linkUrl": "yhouse://event/14359",
            "longitude": "114.281315",
            "maxNum": 99,
            "neededCredits": "40元/1人",
            "originalPrice": null,
            "picUrl": "http://p.yhres.com/event/2016/10/24/1477274702705161.jpg-q75h",
            "recommand": 1,
            "sPicUrl": "http://p.yhres.com/event/2016/10/24/1477274702705161.jpg-ssq75",
            "supportDiscount": 1,
            "tag": "DJ,艺术",
            "title": "Clubclub艺术空间 带你打开艺术世界的新大门",
            "typeIcon": "http://r.yhres.com/category/banner/event.png",
            "vipEqsTag": ""
          }
        ],
        "itemLayout": 3,
        "itemType": 1
      }
    ],
    "extraData": {
      "rocket": {
        "reserveBanner": [],
        "reserveList": [
          {
            "adsName": "reserveList",
            "position": 1,
            "content": [
              {
                "actual": false,
                "xsort": 1,
                "schemeUrl": "yhouse://topic/4298",
                "pvUrl": null,
                "description": null,
                "title": "无聊才是负担",
                "linkName": "TOPIC",
                "picUrl": "http://p.yhres.com/topic/2017/02/27/156808_1488175825424.jpg-q75",
                "linkId": 4298,
                "linkUrl": "/topic/4298",
                "linkType": 6,
                "id": 0,
                "sPicUrl": "http://p.yhres.com/topic/2017/02/27/156808_1488175825424.jpg-ssq75"
              },
              {
                "actual": false,
                "xsort": 4,
                "schemeUrl": "yhouse://web?title=adidas+city+trail&url=http%3A%2F%2Fwx.adidasevents.com%2Foriginals%2Flookbook%2F%3Fmz_ca%3D2032771%26mz_sp%3D73pwO%26mz_sb%3D1&shareIcon=http%3A%2F%2Fp.yhres.com%2Fads%2F2016%2F11%2F17%2F1479356132232759.jpg-ssq75&shareTitle=adidas+city+trail&shareDesc=",
                "pvUrl": "",
                "description": null,
                "title": "adidas city trail",
                "linkName": "HTML5",
                "picUrl": "http://p.yhres.com/ads/2016/11/17/1479356132232759.jpg-q75",
                "linkId": null,
                "linkUrl": "http://wx.adidasevents.com/originals/lookbook/?mz_ca=2032771&mz_sp=73pwO&mz_sb=1",
                "linkType": 4,
                "id": 1615,
                "sPicUrl": "http://p.yhres.com/ads/2016/11/17/1479356132232759.jpg-ssq75"
              },
              {
                "actual": false,
                "xsort": 5,
                "schemeUrl": "yhouse://topic/3035",
                "pvUrl": null,
                "description": null,
                "title": "绅士不止扎领带",
                "linkName": "TOPIC",
                "picUrl": "http://p.yhres.com/topic/2016/11/14/156970_1479100812065.jpg-q75",
                "linkId": 3035,
                "linkUrl": "/topic/3035",
                "linkType": 6,
                "id": 0,
                "sPicUrl": "http://p.yhres.com/topic/2016/11/14/156970_1479100812065.jpg-ssq75"
              }
            ]
          }
        ]
      }
    },
    "isEnd": 0,
    "nextPage": 2,
    "page": 1,
    "pageSize": 10,
    "pid": "15078,15079,15080,14995,14405,14418,14421,14355,14356,14359",
    "totalRows": 23
  },
  "detail": "",
  "message": "success"
}