{
  "code": "0",
  "data": {
    "doc": [
      {
        "itemData": [
          {
            "id": 38,
            "menuHref": "yhouse://search?bizType=2&filter=3&catalog=32&sort=2",
            "menuIcon": "http://r.yhres.com/home/near@3x.png?v2",
            "menuName": "附近"
          },
          {
            "id": 36,
            "menuHref": "yhouse://search?bizType=2&filter=3&catalog=32&sort=3",
            "menuIcon": "http://r.yhres.com/home/new@3x.png?v2",
            "menuName": "最新"
          },
          {
            "id": 37,
            "menuHref": "yhouse://search?bizType=2&filter=3&catalog=32&sort=4",
            "menuIcon": "http://r.yhres.com/home/hot@3x.png?v3",
            "menuName": "最热"
          },
          {
            "id": 5,
            "menuHref": "yhouse://invitation2",
            "menuIcon": "http://r.yhres.com/home/invitationcard@3x.png?v3",
            "menuName": "电子请柬"
          }
        ],
        "itemLayout": 0,
        "itemType": 40
      },
      {
        "itemData": null,
        "itemLayout": 1,
        "itemType": 30
      },
      {
        "itemData": [
          {
            "content": "<p>\r\n\t开心的事要分享给你\r\n</p>\r\n<p>\r\n\t难过的事要告诉给我\r\n</p>\r\n<p>\r\n\t不是情人却比情人更珍贵\r\n</p>\r\n<p>\r\n\t让YHOUSE给你和闺蜜施个美丽魔法\r\n</p>\r\n<p>\r\n\t轻松抵御时间来袭\r\n</p>",
            "contentsNumStr": "10个商户",
            "description": "<p>\r\n\t开心的事要分享给你\r\n</p>\r\n<p>\r\n\t难过的事要告诉给我\r\n</p>\r\n<p>\r\n\t不是情人却比情人更珍贵\r\n</p>\r\n<p>\r\n\t让YHOUSE给你和闺蜜施个美丽魔法\r\n</p>\r\n<p>\r\n\t轻松抵御时间来袭\r\n</p>",
            "id": 3234,
            "isInterested": 0,
            "list": [
              {
                "bdAndCs": "楚河汉街·美容/SPA",
                "distance": 8.9,
                "icon": "http://p.yhres.com/hostInfo/2016/11/24/1479974852156695.jpg-sq75h",
                "isHaveEquities": 0,
                "link": "yhouse://host/47888",
                "price": "人均: 120元",
                "sort": 1,
                "tags": null,
                "title": "淇·会所(中北路店)"
              },
              {
                "bdAndCs": "楚河汉街·美容/SPA",
                "distance": 9.9,
                "icon": "http://p.yhres.com/hostInfo/2016/12/08/1481181908651453.jpg-sq75h",
                "isHaveEquities": 0,
                "link": "yhouse://host/47885",
                "price": "人均: 133元",
                "sort": 2,
                "tags": null,
                "title": "瑞娅臻美"
              },
              {
                "bdAndCs": "水果湖·美容/SPA",
                "distance": 9.8,
                "icon": "http://p.yhres.com/hostInfo/2016/12/02/1480645997217486.jpg-sq75h",
                "isHaveEquities": 0,
                "link": "yhouse://host/47889",
                "price": "人均: 375元",
                "sort": 3,
                "tags": null,
                "title": "英格蜜儿SPA(汉街旗舰店)"
              },
              {
                "bdAndCs": "唐家墩/菱角湖·美容/SPA",
                "distance": 17.4,
                "icon": "http://p.yhres.com/hostInfo/2016/12/02/1480646295943714.jpg-sq75h",
                "isHaveEquities": 0,
                "link": "yhouse://host/47891",
                "price": "",
                "sort": 4,
                "tags": null,
                "title": "英格蜜儿SPA(大武汉1911店)"
              }
            ],
            "picUrl": "http://p.yhres.com/topic/2016/12/08/156970_1481182573304.jpg-q75",
            "sPicUrl": "http://p.yhres.com/topic/2016/12/08/156970_1481182573304.jpg-ssq75",
            "schemeUrl": "yhouse://topic/3234",
            "shareUrl": "http://m.yhouse.com/topic/3234?pk_campaign=share&pk_kwd=topic?pos=114.327493,30.468465&coordType=1",
            "title": "闺蜜首选",
            "viceTitle": "相约变美的好去处"
          }
        ],
        "itemLayout": 2,
        "itemType": 20
      },
      {
        "itemData": [
          {
            "address": "中北路54号宏城金都6号门5楼",
            "businessesDistrict": "楚河汉街",
            "cityId": 37,
            "cuisineStyle": "美容/SPA",
            "discountDesc": null,
            "discountIconUrl": null,
            "distance": "8.9km",
            "highLigth": "美容行业知名美容美体机构",
            "hostName": "淇·会所(中北路店)",
            "id": 47888,
            "isHaveEquities": 0,
            "isInterested": 0,
            "isJoinRedPacket": 0,
            "latitude": "30.547035",
            "linkUrl": "yhouse://host/47888",
            "logoUrl": "http://p.yhres.com/hostInfo/2016/11/24/1479974852236177.jpg-ssq75",
            "longitude": "114.346361",
            "packageDesc": null,
            "packageIconUrl": null,
            "picUrl": "http://p.yhres.com/hostInfo/2016/11/24/1479974852156695.jpg-q75h",
            "price": 120,
            "priceStr": "人均: 120元",
            "publicityWord": "",
            "tagArr": [],
            "title": "淇·会所(中北路店)",
            "vipEqsTag": ""
          },
          {
            "address": "楚河汉街万达广场2号门斜对面雪恋二楼瑞娅臻美(何世玉)",
            "businessesDistrict": "楚河汉街",
            "cityId": 37,
            "cuisineStyle": "美容/SPA",
            "discountDesc": null,
            "discountIconUrl": null,
            "distance": "9.9km",
            "highLigth": "合作知名品牌 倾力打造指间的美丽帝国",
            "hostName": "瑞娅臻美",
            "id": 47885,
            "isHaveEquities": 0,
            "isInterested": 0,
            "isJoinRedPacket": 0,
            "latitude": "30.557173",
            "linkUrl": "yhouse://host/47885",
            "logoUrl": "http://p.yhres.com/hostInfo/2016/11/30/1480494018929621.jpg-ssq75",
            "longitude": "114.340615",
            "packageDesc": null,
            "packageIconUrl": null,
            "picUrl": "http://p.yhres.com/hostInfo/2016/12/08/1481181908651453.jpg-q75h",
            "price": 133,
            "priceStr": "人均: 133元",
            "publicityWord": "",
            "tagArr": [],
            "title": "瑞娅臻美",
            "vipEqsTag": ""
          },
          {
            "address": "中北路万达楚河汉街66号(地铁4号线楚河汉街站B出口)",
            "businessesDistrict": "水果湖",
            "cityId": 37,
            "cuisineStyle": "美容/SPA",
            "discountDesc": null,
            "discountIconUrl": null,
            "distance": "9.8km",
            "highLigth": "首创植物护肤 领导美容潮流",
            "hostName": "英格蜜儿SPA(汉街旗舰店)",
            "id": 47889,
            "isHaveEquities": 0,
            "isInterested": 0,
            "isJoinRedPacket": 0,
            "latitude": "30.555676",
            "linkUrl": "yhouse://host/47889",
            "logoUrl": "http://p.yhres.com/hostInfo/2016/12/08/1481190847906193.jpg-ssq75",
            "longitude": "114.343229",
            "packageDesc": null,
            "packageIconUrl": null,
            "picUrl": "http://p.yhres.com/hostInfo/2016/12/02/1480645997217486.jpg-q75h",
            "price": 375,
            "priceStr": "人均: 375元",
            "publicityWord": "",
            "tagArr": [],
            "title": "英格蜜儿SPA(汉街旗舰店)",
            "vipEqsTag": ""
          },
          {
            "address": "宝丰路6号香溢大酒店1楼",
            "businessesDistrict": "硚口路",
            "cityId": 37,
            "cuisineStyle": "美容/SPA",
            "discountDesc": null,
            "discountIconUrl": null,
            "distance": "14.2km",
            "highLigth": "尊享世界最尖端护理技术及顶级产品",
            "hostName": "SK芯秀丽(宝丰店)",
            "id": 47903,
            "isHaveEquities": 0,
            "isInterested": 0,
            "isJoinRedPacket": 0,
            "latitude": "30.579221",
            "linkUrl": "yhouse://host/47903",
            "logoUrl": "http://p.yhres.com/hostInfo/2016/12/08/1481177536867073.jpg-ssq75",
            "longitude": "114.253263",
            "packageDesc": null,
            "packageIconUrl": null,
            "picUrl": "http://p.yhres.com/hostInfo/2016/11/24/1479968110632097.jpg-q75h",
            "price": 456,
            "priceStr": "人均: 456元",
            "publicityWord": "",
            "tagArr": [],
            "title": "SK芯秀丽(宝丰店)",
            "vipEqsTag": ""
          },
          {
            "address": "新华路大武汉1911B栋2楼",
            "businessesDistrict": "唐家墩/菱角湖",
            "cityId": 37,
            "cuisineStyle": "美容/SPA",
            "discountDesc": null,
            "discountIconUrl": null,
            "distance": "17.4km",
            "highLigth": "首创植物护肤 对抗肌肤过早老化",
            "hostName": "英格蜜儿SPA(大武汉1911店)",
            "id": 47891,
            "isHaveEquities": 0,
            "isInterested": 0,
            "isJoinRedPacket": 0,
            "latitude": "30.614951",
            "linkUrl": "yhouse://host/47891",
            "logoUrl": "http://p.yhres.com/hostInfo/2016/12/08/1481190928276819.jpg-ssq75",
            "longitude": "114.262935",
            "packageDesc": null,
            "packageIconUrl": null,
            "picUrl": "http://p.yhres.com/hostInfo/2016/12/02/1480646295943714.jpg-q75h",
            "price": null,
            "priceStr": null,
            "publicityWord": "",
            "tagArr": [],
            "title": "英格蜜儿SPA(大武汉1911店)",
            "vipEqsTag": ""
          },
          {
            "address": "徐东大街120号福星惠誉群星城四楼",
            "businessesDistrict": "徐东大街",
            "cityId": 37,
            "cuisineStyle": "美容/SPA",
            "discountDesc": null,
            "discountIconUrl": null,
            "distance": "13.0km",
            "highLigth": "将欧洲成熟美肤科技 产品理念引入中国",
            "hostName": "美丽田园美容(武汉群星城店)",
            "id": 47898,
            "isHaveEquities": 0,
            "isInterested": 0,
            "isJoinRedPacket": 0,
            "latitude": "30.584189",
            "linkUrl": "yhouse://host/47898",
            "logoUrl": "http://p.yhres.com/hostInfo/2016/12/08/1481177929361166.png-ssq75",
            "longitude": "114.34923",
            "packageDesc": null,
            "packageIconUrl": null,
            "picUrl": "http://p.yhres.com/hostInfo/2016/11/28/1480313731052138.JPG-q75h",
            "price": null,
            "priceStr": null,
            "publicityWord": "",
            "tagArr": [],
            "title": "美丽田园美容(武汉群星城店)",
            "vipEqsTag": ""
          },
          {
            "address": "泛海国际悦海园4号商铺",
            "businessesDistrict": "汉口火车站",
            "cityId": 37,
            "cuisineStyle": "美容/SPA",
            "discountDesc": null,
            "discountIconUrl": null,
            "distance": "16.5km",
            "highLigth": "集美容、美甲于一体",
            "hostName": "悦·美汇",
            "id": 47884,
            "isHaveEquities": 0,
            "isInterested": 0,
            "isJoinRedPacket": 0,
            "latitude": "30.603379",
            "linkUrl": "yhouse://host/47884",
            "logoUrl": "",
            "longitude": "114.256541",
            "packageDesc": null,
            "packageIconUrl": null,
            "picUrl": "http://p.yhres.com/hostInfo/2016/11/30/1480496774255505.jpg-q75h",
            "price": null,
            "priceStr": null,
            "publicityWord": "",
            "tagArr": [],
            "title": "悦·美汇",
            "vipEqsTag": ""
          },
          {
            "address": "沙河大道公正路楚河汉街万达广场3楼18号商铺",
            "businessesDistrict": "水果湖",
            "cityId": 37,
            "cuisineStyle": "美容/SPA",
            "discountDesc": null,
            "discountIconUrl": null,
            "distance": "9.8km",
            "highLigth": "中国极具专业的高端美容连锁企业",
            "hostName": "美丽田园美容(汉街万达广场店)",
            "id": 47896,
            "isHaveEquities": 0,
            "isInterested": 0,
            "isJoinRedPacket": 0,
            "latitude": "30.556529",
            "linkUrl": "yhouse://host/47896",
            "logoUrl": "",
            "longitude": "114.338187",
            "packageDesc": null,
            "packageIconUrl": null,
            "picUrl": "http://p.yhres.com/hostInfo/2016/11/28/1480313462000903.JPG-q75h",
            "price": 242,
            "priceStr": "人均: 242元",
            "publicityWord": "",
            "tagArr": [],
            "title": "美丽田园美容(汉街万达广场店)",
            "vipEqsTag": ""
          },
          {
            "address": "珞瑜路光谷世界城广场417-418号",
            "businessesDistrict": "光谷/鲁巷",
            "cityId": 37,
            "cuisineStyle": "美容/SPA",
            "discountDesc": null,
            "discountIconUrl": null,
            "distance": "8.6km",
            "highLigth": "对抗肌肤过早老化 高效护肤",
            "hostName": "英格蜜儿SPA(光谷世界城广场店)",
            "id": 47890,
            "isHaveEquities": 0,
            "isInterested": 0,
            "isJoinRedPacket": 0,
            "latitude": "30.506302",
            "linkUrl": "yhouse://host/47890",
            "logoUrl": "http://p.yhres.com/hostInfo/2016/12/08/1481190890189322.jpg-ssq75",
            "longitude": "114.405889",
            "packageDesc": null,
            "packageIconUrl": null,
            "picUrl": "http://p.yhres.com/hostInfo/2016/12/02/1480646569141024.jpg-q75h",
            "price": 226,
            "priceStr": "人均: 226元",
            "publicityWord": "",
            "tagArr": [],
            "title": "英格蜜儿SPA(光谷世界城广场店)",
            "vipEqsTag": ""
          },
          {
            "address": "中山大道238号凯德广场5楼(近武胜路，家乐福)",
            "businessesDistrict": "武胜路",
            "cityId": 37,
            "cuisineStyle": "美容/SPA",
            "discountDesc": null,
            "discountIconUrl": null,
            "distance": "12.5km",
            "highLigth": "大型直营抗衰美颜连锁集团",
            "hostName": "娇莉芙(凯德广场店)",
            "id": 47902,
            "isHaveEquities": 0,
            "isInterested": 0,
            "isJoinRedPacket": 0,
            "latitude": "30.568931",
            "linkUrl": "yhouse://host/47902",
            "logoUrl": "http://p.yhres.com/hostInfo/2016/11/24/1479969854376055.jpg-ssq75",
            "longitude": "114.269119",
            "packageDesc": null,
            "packageIconUrl": null,
            "picUrl": "http://p.yhres.com/hostInfo/2016/11/24/1479969854266444.jpg-q75h",
            "price": 1184,
            "priceStr": "人均: 1184元",
            "publicityWord": "",
            "tagArr": [],
            "title": "娇莉芙(凯德广场店)",
            "vipEqsTag": ""
          }
        ],
        "itemLayout": 3,
        "itemType": 7
      }
    ],
    "extraData": {
      "rocket": {
        "reserveBanner": [],
        "reserveList": [
          {
            "adsName": "reserveList",
            "position": 1,
            "content": [
              {
                "actual": false,
                "xsort": 1,
                "schemeUrl": "yhouse://topic/4316",
                "pvUrl": null,
                "description": null,
                "title": "一眼怦然心动",
                "linkName": "TOPIC",
                "picUrl": "http://p.yhres.com/topic/2017/02/27/156970_1488186020602.jpg-q75",
                "linkId": 4316,
                "linkUrl": "/topic/4316",
                "linkType": 6,
                "id": 0,
                "sPicUrl": "http://p.yhres.com/topic/2017/02/27/156970_1488186020602.jpg-ssq75"
              },
              {
                "actual": false,
                "xsort": 3,
                "schemeUrl": "yhouse://topic/3229",
                "pvUrl": null,
                "description": null,
                "title": "无论多忙都不停止变美",
                "linkName": "TOPIC",
                "picUrl": "http://p.yhres.com/topic/2016/12/08/156808_1481179306569.jpg-q75",
                "linkId": 3229,
                "linkUrl": "/topic/3229",
                "linkType": 6,
                "id": 0,
                "sPicUrl": "http://p.yhres.com/topic/2016/12/08/156808_1481179306569.jpg-ssq75"
              },
              {
                "actual": false,
                "xsort": 5,
                "schemeUrl": "yhouse://topic/4103",
                "pvUrl": null,
                "description": null,
                "title": "冻龄有方 驻颜有术",
                "linkName": "TOPIC",
                "picUrl": "http://p.yhres.com/topic/2017/02/10/156970_1486714744004.jpg-q75",
                "linkId": 4103,
                "linkUrl": "/topic/4103",
                "linkType": 6,
                "id": 0,
                "sPicUrl": "http://p.yhres.com/topic/2017/02/10/156970_1486714744004.jpg-ssq75"
              },
              {
                "actual": false,
                "xsort": 6,
                "schemeUrl": "yhouse://topic/4192",
                "pvUrl": null,
                "description": null,
                "title": "蛋壳肌养成指南",
                "linkName": "TOPIC",
                "picUrl": "http://p.yhres.com/topic/2017/02/17/156970_1487321743032.jpg-q75",
                "linkId": 4192,
                "linkUrl": "/topic/4192",
                "linkType": 6,
                "id": 0,
                "sPicUrl": "http://p.yhres.com/topic/2017/02/17/156970_1487321743032.jpg-ssq75"
              }
            ]
          }
        ]
      }
    },
    "isEnd": 0,
    "nextPage": 2,
    "page": 1,
    "pageSize": 10,
    "pid": "47888,47885,47889,47903,47891,47898,47884,47896,47890,47902",
    "totalRows": 64
  },
  "detail": "",
  "message": "success"
}