{
  "code": "0",
  "data": {
    "doc": [
      {
        "itemData": [
          {
            "id": 23,
            "menuHref": "yhouse://search?bizType=1&catalog=2&sort=2",
            "menuIcon": "http://r.yhres.com/home/near@3x.png?v2",
            "menuName": "附近"
          },
          {
            "id": 21,
            "menuHref": "yhouse://search?bizType=1&catalog=2&sort=3",
            "menuIcon": "http://r.yhres.com/home/new@3x.png?v2",
            "menuName": "新品"
          },
          {
            "id": 5,
            "menuHref": "yhouse://invitation2",
            "menuIcon": "http://r.yhres.com/home/invitationcard@3x.png?v3",
            "menuName": "电子请柬"
          },
          {
            "id": 9,
            "menuHref": "yhouse://search?bizType=1&filter=2&catalog=2&dt=1",
            "menuIcon": "http://r.yhres.com/home/lunch@3x.png?v2",
            "menuName": "午餐"
          },
          {
            "id": 10,
            "menuHref": "yhouse://search?bizType=1&filter=2&catalog=2&dt=2",
            "menuIcon": "http://r.yhres.com/home/dinner@3x.png?v2",
            "menuName": "晚餐"
          },
          {
            "id": 11,
            "menuHref": "yhouse://search?bizType=1&filter=2&catalog=2&dt=3",
            "menuIcon": "http://r.yhres.com/home/tea@3x.png?v2",
            "menuName": "下午茶"
          },
          {
            "id": 14,
            "menuHref": "yhouse://search?bizType=1&filter=2&catalog=2&ps=2",
            "menuIcon": "http://r.yhres.com/home/2people@3x.png?v2",
            "menuName": "二人世界"
          },
          {
            "id": 16,
            "menuHref": "yhouse://search?bizType=1&filter=2&catalog=2&pc=1",
            "menuIcon": "http://r.yhres.com/home/less100@3x.png?v2",
            "menuName": "食不过百"
          }
        ],
        "itemLayout": 0,
        "itemType": 40
      },
      {
        "itemData": null,
        "itemLayout": 1,
        "itemType": 30
      },
      {
        "itemData": [
          {
            "content": "<p>\r\n\t每天忙碌穿梭\r\n</p>\r\n<p>\r\n\t吃饭时总要给自己完全放松的时间\r\n</p>\r\n<p>\r\n\t脑内放空，只完全享受食物的香气\r\n</p>\r\n<p>\r\n\t和舌尖的触动\r\n</p>\r\n<p>\r\n\tYHOUSE为你带来城内优选美食\r\n</p>\r\n<p>\r\n\t独家套餐待你品鉴\r\n</p>",
            "contentsNumStr": "15个套餐",
            "description": "<p>\r\n\t每天忙碌穿梭\r\n</p>\r\n<p>\r\n\t吃饭时总要给自己完全放松的时间\r\n</p>\r\n<p>\r\n\t脑内放空，只完全享受食物的香气\r\n</p>\r\n<p>\r\n\t和舌尖的触动\r\n</p>\r\n<p>\r\n\tYHOUSE为你带来城内优选美食\r\n</p>\r\n<p>\r\n\t独家套餐待你品鉴\r\n</p>",
            "id": 2486,
            "isInterested": 0,
            "list": [
              {
                "bdAndCs": null,
                "distance": null,
                "icon": "http://p.yhres.com/meal/2016/09/06/1473137178608.JPG-sq75h",
                "isHaveEquities": 0,
                "link": "yhouse://meal/8241",
                "price": "488元/2人",
                "sort": 1,
                "tags": null,
                "title": "简约雅致环境中尊享创意美味分子料理浪漫双人套餐"
              },
              {
                "bdAndCs": "楚河汉街·东南亚菜",
                "distance": 0,
                "icon": "http://p.yhres.com/hostInfo/2016/11/25/1480059264602951.JPG-sq75h",
                "isHaveEquities": 0,
                "link": "yhouse://host/34246",
                "price": "人均: 77元",
                "sort": 2,
                "tags": null,
                "title": "棠越法式越南餐厅(凯德1818店)"
              },
              {
                "bdAndCs": null,
                "distance": null,
                "icon": "http://p.yhres.com/meal/2016/09/08/1473330709934.JPG-sq75h",
                "isHaveEquities": 0,
                "link": "yhouse://meal/7419",
                "price": "153元/2人",
                "sort": 3,
                "tags": null,
                "title": "简约日料居酒屋设计风格 带你体验家庭般温馨的豪华日料大餐"
              },
              {
                "bdAndCs": null,
                "distance": null,
                "icon": "http://p.yhres.com/meal/2016/04/18/1460965134721.JPG-sq75h",
                "isHaveEquities": 0,
                "link": "yhouse://meal/3858",
                "price": "278元/1人",
                "sort": 4,
                "tags": null,
                "title": "禅意臻境 雕琢奢华 武汉光谷凯悦酒店晚餐自助[限周五至周日使"
              }
            ],
            "picUrl": "http://p.yhres.com/topic/2016/12/20/156957_1482244910856.jpeg-q75",
            "sPicUrl": "http://p.yhres.com/topic/2016/12/20/156957_1482244910856.jpeg-ssq75",
            "schemeUrl": "yhouse://topic/2486",
            "shareUrl": "http://m.yhouse.com/topic/2486?pk_campaign=share&pk_kwd=topic?pos=null&coordType=null",
            "title": "小资品鉴",
            "viceTitle": "YHOUSE专属优选"
          },
          {
            "content": "YHOUSE搜罗本周最热美食 <br />\r\n网红排行榜No.1尽在这里 <br />\r\n给你一份“最值得吃”全攻略 <br />\r\n总有一家可以满足你挑剔的味蕾 <br />\r\n轻松告别纠结症~",
            "contentsNumStr": "13个套餐",
            "description": "YHOUSE搜罗本周最热美食 <br />\r\n网红排行榜No.1尽在这里 <br />\r\n给你一份“最值得吃”全攻略 <br />\r\n总有一家可以满足你挑剔的味蕾 <br />\r\n轻松告别纠结症~",
            "id": 2301,
            "isInterested": 0,
            "list": [
              {
                "bdAndCs": null,
                "distance": null,
                "icon": "http://p.yhres.com/meal/2017/01/11/1484102370800.jpg-sq75h",
                "isHaveEquities": 0,
                "link": "yhouse://meal/8213",
                "price": "380元/1人",
                "sort": 1,
                "tags": null,
                "title": "小厨师奇遇记  浪漫法式情怀邂逅3D动感餐桌体验 18:30"
              },
              {
                "bdAndCs": "光谷/鲁巷·西餐",
                "distance": 0,
                "icon": "http://p.yhres.com/hostInfo/2017/01/23/1485141059443897.jpg-sq75h",
                "isHaveEquities": 0,
                "link": "yhouse://host/148750",
                "price": "人均: 300元",
                "sort": 2,
                "tags": null,
                "title": "爱唯飞机主题餐厅"
              },
              {
                "bdAndCs": null,
                "distance": null,
                "icon": "http://p.yhres.com/meal/2016/04/14/1460598583090.jpg-sq75h",
                "isHaveEquities": 0,
                "link": "yhouse://meal/3718",
                "price": "220元/2人",
                "sort": 3,
                "tags": null,
                "title": "私藏钻石博物馆里的神秘下午茶"
              },
              {
                "bdAndCs": null,
                "distance": null,
                "icon": "http://p.yhres.com/meal/2016/08/23/1471937799317.JPG-sq75h",
                "isHaveEquities": 0,
                "link": "yhouse://meal/7010",
                "price": "85元/代金券",
                "sort": 4,
                "tags": null,
                "title": "日籍大厨用传统工艺还原日料本味 坐在日式榻榻米上享美食"
              }
            ],
            "picUrl": "http://p.yhres.com/topic/2016/09/29/156800_1475138035563.jpg-q75",
            "sPicUrl": "http://p.yhres.com/topic/2016/09/29/156800_1475138035563.jpg-ssq75",
            "schemeUrl": "yhouse://topic/2301",
            "shareUrl": "http://m.yhouse.com/topic/2301?pk_campaign=share&pk_kwd=topic?pos=null&coordType=null",
            "title": "本周最热",
            "viceTitle": "7x24小时最受欢迎"
          },
          {
            "content": "滋滋作响、香气难敌的铁板烧 <br />\r\n食材考究、摆盘精致的日本料理 <br />\r\n麻辣鲜香、沸腾一锅的川味锅品 <br />\r\n气质优雅、有颜有料的精致下午茶 <br />\r\n…… <br />\r\nYHOUSE为每一位爱吃的你 <br />\r\n甄选最适合的那一款",
            "contentsNumStr": "20个商户",
            "description": "滋滋作响、香气难敌的铁板烧 <br />\r\n食材考究、摆盘精致的日本料理 <br />\r\n麻辣鲜香、沸腾一锅的川味锅品 <br />\r\n气质优雅、有颜有料的精致下午茶 <br />\r\n…… <br />\r\nYHOUSE为每一位爱吃的你 <br />\r\n甄选最适合的那一款",
            "id": 2514,
            "isInterested": 0,
            "list": [
              {
                "bdAndCs": "阅马场·咖啡厅",
                "distance": 0,
                "icon": "http://p.yhres.com/meal/2016/09/06/1473126131463.JPG-sq75h",
                "isHaveEquities": 0,
                "link": "yhouse://host/24522",
                "price": "人均: 42元",
                "sort": null,
                "tags": null,
                "title": "Dear Deer Coffee（403店）"
              },
              {
                "bdAndCs": "港澳台风情街·日本料理",
                "distance": 0,
                "icon": "http://p.yhres.com/meal/2016/07/30/1469820167698.JPG-sq75h",
                "isHaveEquities": 0,
                "link": "yhouse://host/23900",
                "price": "人均: 79元",
                "sort": null,
                "tags": null,
                "title": "武汉香格里拉日式居酒屋"
              },
              {
                "bdAndCs": "港澳台风情街·西餐",
                "distance": 0,
                "icon": "http://p.yhres.com/hostInfo/2016/09/22/1474536305096225.JPG-sq75h",
                "isHaveEquities": 0,
                "link": "yhouse://host/29870",
                "price": "人均: 125元",
                "sort": null,
                "tags": null,
                "title": "丹宁绘酒窖餐厅"
              },
              {
                "bdAndCs": "客运港/江滩·其它",
                "distance": 0,
                "icon": "http://p.yhres.com/hostInfo/2016/10/20/1476946594772824.jpg-sq75h",
                "isHaveEquities": 0,
                "link": "yhouse://host/23512",
                "price": "人均: 122元",
                "sort": null,
                "tags": null,
                "title": "田阿姨私房菜"
              }
            ],
            "picUrl": "http://p.yhres.com/topic/2016/08/18/156745_1471506487725.jpg-q75",
            "sPicUrl": "http://p.yhres.com/topic/2016/08/18/156745_1471506487725.jpg-ssq75",
            "schemeUrl": "yhouse://topic/2514",
            "shareUrl": "http://m.yhouse.com/topic/2514?pk_campaign=share&pk_kwd=topic?pos=null&coordType=null",
            "title": "猜你喜欢",
            "viceTitle": "寻找最适合你的那一款"
          }
        ],
        "itemLayout": 2,
        "itemType": 20
      },
      {
        "itemData": [
          {
            "address": "友谊大道芭莎公馆1-1103",
            "businessesDistrict": "徐东大街",
            "cityId": 37,
            "cuisineStyle": "甜品店",
            "discountDesc": null,
            "discountIconUrl": null,
            "distance": "",
            "highLigth": "浓郁日式风情调十足甜品店",
            "hostName": "zero cafe 零咖啡馆",
            "id": 186725,
            "isHaveEquities": 0,
            "isInterested": 0,
            "isJoinRedPacket": 0,
            "latitude": "30.58584",
            "linkUrl": "yhouse://host/186725",
            "logoUrl": "",
            "longitude": "114.3405",
            "packageDesc": null,
            "packageIconUrl": null,
            "picUrl": "http://p.yhres.com/hostInfo/2017/02/28/1488275346564254.png-q75h",
            "price": 51,
            "priceStr": "人均: 51元",
            "publicityWord": "",
            "tagArr": [],
            "title": "zero cafe 零咖啡馆",
            "vipEqsTag": ""
          },
          {
            "address": "水果湖汉街中央文化旅游区K3地块1.2幢1-2层9号(汉街总部国际A座与B座之间)",
            "businessesDistrict": "楚河汉街",
            "cityId": 37,
            "cuisineStyle": "咖啡厅",
            "discountDesc": null,
            "discountIconUrl": null,
            "distance": "",
            "highLigth": "以鹿为主题的黑白简约咖啡馆",
            "hostName": "DEAR DEER COFFEE",
            "id": 31799,
            "isHaveEquities": 0,
            "isInterested": 0,
            "isJoinRedPacket": 0,
            "latitude": "30.55471",
            "linkUrl": "yhouse://host/31799",
            "logoUrl": "http://p.yhres.com/host/2016/11/07/1478486395636669.jpg-ssq75",
            "longitude": "114.3436",
            "packageDesc": null,
            "packageIconUrl": null,
            "picUrl": "http://p.yhres.com/hostInfo/2017/02/28/1488271548896977.png-q75h",
            "price": 42,
            "priceStr": "人均: 42元",
            "publicityWord": "",
            "tagArr": [],
            "title": "DEAR DEER COFFEE",
            "vipEqsTag": ""
          },
          {
            "address": "团结大道湖大南门沙湖公馆25号",
            "businessesDistrict": "武昌火车站",
            "cityId": 37,
            "cuisineStyle": "甜品店",
            "discountDesc": null,
            "discountIconUrl": null,
            "distance": "",
            "highLigth": "只提供咖啡 酒 甜品的文艺咖啡馆",
            "hostName": "August 25",
            "id": 190174,
            "isHaveEquities": 0,
            "isInterested": 0,
            "isJoinRedPacket": 0,
            "latitude": "30.573004",
            "linkUrl": "yhouse://host/190174",
            "logoUrl": "",
            "longitude": "114.333278",
            "packageDesc": null,
            "packageIconUrl": null,
            "picUrl": "http://p.yhres.com/hostInfo/2017/02/28/1488270284748446.png-q75h",
            "price": 45,
            "priceStr": "人均: 45元",
            "publicityWord": "",
            "tagArr": [],
            "title": "August 25",
            "vipEqsTag": ""
          },
          {
            "address": "长宜路宜家荟聚购物中心2楼G区",
            "businessesDistrict": "武胜路",
            "cityId": 37,
            "cuisineStyle": "融合菜",
            "discountDesc": null,
            "discountIconUrl": null,
            "distance": "",
            "highLigth": "文艺风隐藏下的烧烤店 带你优雅撸串",
            "hostName": "南风吹过厨房",
            "id": 66483,
            "isHaveEquities": 0,
            "isInterested": 0,
            "isJoinRedPacket": 0,
            "latitude": "30.617791",
            "linkUrl": "yhouse://host/66483",
            "logoUrl": "http://p.yhres.com/hostInfo/2016/12/29/1482998764057302.jpg-ssq75",
            "longitude": "114.167478",
            "packageDesc": null,
            "packageIconUrl": null,
            "picUrl": "http://p.yhres.com/hostInfo/2017/01/05/1483601690811176.jpg-q75h",
            "price": 59,
            "priceStr": "人均: 59元",
            "publicityWord": "",
            "tagArr": [],
            "title": "南风吹过厨房",
            "vipEqsTag": ""
          },
          {
            "address": "海天欢乐购4F",
            "businessesDistrict": "王家湾",
            "cityId": 37,
            "cuisineStyle": "其它",
            "discountDesc": null,
            "discountIconUrl": null,
            "distance": "",
            "highLigth": "新派餐厅 装修精致优雅",
            "hostName": "遇江南",
            "id": 5678,
            "isHaveEquities": 0,
            "isInterested": 0,
            "isJoinRedPacket": 0,
            "latitude": "30.563295",
            "linkUrl": "yhouse://host/5678",
            "logoUrl": "http://p.yhres.com/host/2016/11/07/1478500443120972.jpg-ssq75",
            "longitude": "114.211199",
            "packageDesc": null,
            "packageIconUrl": null,
            "picUrl": "http://p.yhres.com/meal/2016/03/26/1458969538632.JPG-q75h",
            "price": null,
            "priceStr": null,
            "publicityWord": "",
            "tagArr": [
              "促"
            ],
            "title": "遇江南",
            "vipEqsTag": ""
          },
          {
            "address": "武汉市江岸区胜利街142号",
            "businessesDistrict": "客运港/江滩",
            "cityId": 37,
            "cuisineStyle": "咖啡厅",
            "discountDesc": null,
            "discountIconUrl": null,
            "distance": "",
            "highLigth": "充满异国情调的文艺咖啡馆",
            "hostName": "魔界咖啡 胜利街店",
            "id": 4752,
            "isHaveEquities": 0,
            "isInterested": 0,
            "isJoinRedPacket": 0,
            "latitude": "30.588457",
            "linkUrl": "yhouse://host/4752",
            "logoUrl": "http://p.yhres.com/host/logo/coffee@3x.png-ssq75",
            "longitude": "114.299451",
            "packageDesc": null,
            "packageIconUrl": null,
            "picUrl": "http://p.yhres.com/hostInfo/2016/03/02/1456910265736167.JPG-q75h",
            "price": null,
            "priceStr": null,
            "publicityWord": "",
            "tagArr": [],
            "title": "魔界咖啡 胜利街店",
            "vipEqsTag": ""
          },
          {
            "address": "凯德广场1818七楼（楚河汉街D出口）卢米埃电影院旁",
            "businessesDistrict": "楚河汉街",
            "cityId": 37,
            "cuisineStyle": "湘菜",
            "discountDesc": null,
            "discountIconUrl": null,
            "distance": "",
            "highLigth": "经典湘菜融合当代饮食风尚",
            "hostName": "洞庭春湖湘菜馆",
            "id": 139163,
            "isHaveEquities": 0,
            "isInterested": 0,
            "isJoinRedPacket": 0,
            "latitude": "30.553415",
            "linkUrl": "yhouse://host/139163",
            "logoUrl": "http://p.yhres.com/hostInfo/2017/01/22/1485076157403098.jpg-ssq75",
            "longitude": "114.340156",
            "packageDesc": null,
            "packageIconUrl": null,
            "picUrl": "http://p.yhres.com/hostInfo/2017/01/17/1484647946410847.png-q75h",
            "price": 62,
            "priceStr": "人均: 62元",
            "publicityWord": "",
            "tagArr": [],
            "title": "洞庭春湖湘菜馆",
            "vipEqsTag": ""
          },
          {
            "address": "万松园路129号附20号",
            "businessesDistrict": "万松园",
            "cityId": 37,
            "cuisineStyle": "咖啡厅",
            "discountDesc": null,
            "discountIconUrl": null,
            "distance": "",
            "highLigth": "集咖啡 鲜花定制 杂货于一体小店",
            "hostName": "扎可花园",
            "id": 67799,
            "isHaveEquities": 0,
            "isInterested": 0,
            "isJoinRedPacket": 0,
            "latitude": "30.586252",
            "linkUrl": "yhouse://host/67799",
            "logoUrl": "http://p.yhres.com/hostInfo/2016/12/29/1482998881736652.jpg-ssq75",
            "longitude": "114.267447",
            "packageDesc": null,
            "packageIconUrl": null,
            "picUrl": "http://p.yhres.com/hostInfo/2016/12/28/1482910341801015.png-q75h",
            "price": 30,
            "priceStr": "人均: 30元",
            "publicityWord": "",
            "tagArr": [],
            "title": "扎可花园",
            "vipEqsTag": ""
          },
          {
            "address": "青南路308号花园道1楼",
            "businessesDistrict": "西北湖",
            "cityId": 37,
            "cuisineStyle": "咖啡厅",
            "discountDesc": null,
            "discountIconUrl": null,
            "distance": "",
            "highLigth": "两层独栋别墅小楼星巴克R系列分店",
            "hostName": "星巴克（花园道店）",
            "id": 14359,
            "isHaveEquities": 0,
            "isInterested": 0,
            "isJoinRedPacket": 0,
            "latitude": "30.582346",
            "linkUrl": "yhouse://host/14359",
            "logoUrl": "http://p.yhres.com/host/logo/coffee@3x.png-ssq75",
            "longitude": "114.285637",
            "packageDesc": null,
            "packageIconUrl": null,
            "picUrl": "http://p.yhres.com/hostInfo/2016/04/22/1461302521214799.JPG-q75h",
            "price": null,
            "priceStr": null,
            "publicityWord": "",
            "tagArr": [],
            "title": "星巴克（花园道店）",
            "vipEqsTag": ""
          },
          {
            "address": "汉阳区滨江大道晴川阁正门公交车站旁",
            "businessesDistrict": "钟家村",
            "cityId": 37,
            "cuisineStyle": "其它",
            "discountDesc": null,
            "discountIconUrl": null,
            "distance": "",
            "highLigth": "静谧禅意 品汤羹养生哲学",
            "hostName": "大胤艺术餐厅",
            "id": 3949,
            "isHaveEquities": 0,
            "isInterested": 0,
            "isJoinRedPacket": 0,
            "latitude": "30.556447",
            "linkUrl": "yhouse://host/3949",
            "logoUrl": "http://p.yhres.com/hostInfo/2016/12/09/1481275396719583.png-ssq75",
            "longitude": "114.284636",
            "packageDesc": null,
            "packageIconUrl": null,
            "picUrl": "http://p.yhres.com/meal/2015/12/25/1451011164308.jpg-q75h",
            "price": null,
            "priceStr": null,
            "publicityWord": "",
            "tagArr": [
              "促"
            ],
            "title": "大胤艺术餐厅",
            "vipEqsTag": ""
          }
        ],
        "itemLayout": 3,
        "itemType": 7
      }
    ],
    "extraData": {
      "rocket": {
        "reserveBanner": [],
        "reserveList": [
          {
            "adsName": "reserveList",
            "position": 1,
            "content": [
              {
                "actual": false,
                "xsort": 1,
                "schemeUrl": "yhouse://topic/4273",
                "pvUrl": null,
                "description": null,
                "title": "松露的正确品鉴方法",
                "linkName": "TOPIC",
                "picUrl": "http://p.yhres.com/topic/2017/02/28/156745_1488294799590.jpg-q75",
                "linkId": 4273,
                "linkUrl": "/topic/4273",
                "linkType": 6,
                "id": 0,
                "sPicUrl": "http://p.yhres.com/topic/2017/02/28/156745_1488294799590.jpg-ssq75"
              },
              {
                "actual": false,
                "xsort": 3,
                "schemeUrl": "yhouse://topic/3633",
                "pvUrl": null,
                "description": null,
                "title": "迷你小厨师的3D餐桌厨艺秀登陆武汉",
                "linkName": "TOPIC",
                "picUrl": "http://p.yhres.com/topic/2017/01/13/156957_1484273477653.jpg-q75",
                "linkId": 3633,
                "linkUrl": "/topic/3633",
                "linkType": 6,
                "id": 0,
                "sPicUrl": "http://p.yhres.com/topic/2017/01/13/156957_1484273477653.jpg-ssq75"
              },
              {
                "actual": false,
                "xsort": 4,
                "schemeUrl": "yhouse://web?title=%E5%85%B0%E8%8A%9D%E7%BE%8E%E4%B8%BD%E4%B8%8A%E6%89%AC%E8%AF%BE%E5%A0%82&url=http%3A%2F%2Fwww.laneige.com%2Fcn%2Fzh%2Fmain.html&shareIcon=http%3A%2F%2Fp.yhres.com%2Ffile%2F2016%2F11%2F18%2F1479444580111578.jpg-ssq75&shareTitle=%E5%85%B0%E8%8A%9D%E7%BE%8E%E4%B8%BD%E4%B8%8A%E6%89%AC%E8%AF%BE%E5%A0%82&shareDesc=",
                "pvUrl": "",
                "description": null,
                "title": "兰芝美丽上扬课堂",
                "linkName": "HTML5",
                "picUrl": "http://p.yhres.com/file/2016/11/18/1479444580111578.jpg-q75",
                "linkId": null,
                "linkUrl": "http://www.laneige.com/cn/zh/main.html",
                "linkType": 4,
                "id": 1663,
                "sPicUrl": "http://p.yhres.com/file/2016/11/18/1479444580111578.jpg-ssq75"
              },
              {
                "actual": false,
                "xsort": 5,
                "schemeUrl": "yhouse://topic/4251",
                "pvUrl": null,
                "description": null,
                "title": "简单不粗暴的选一份工作餐",
                "linkName": "TOPIC",
                "picUrl": "http://p.yhres.com/topic/2017/02/21/156745_1487681673991.jpg-q75",
                "linkId": 4251,
                "linkUrl": "/topic/4251",
                "linkType": 6,
                "id": 0,
                "sPicUrl": "http://p.yhres.com/topic/2017/02/21/156745_1487681673991.jpg-ssq75"
              },
              {
                "actual": false,
                "xsort": 6,
                "schemeUrl": "yhouse://topic/4237",
                "pvUrl": null,
                "description": null,
                "title": "乘风破浪踏遍江城绝佳吃喝玩乐地",
                "linkName": "TOPIC",
                "picUrl": "http://p.yhres.com/topic/2017/02/21/156745_1487652066268.jpg-q75",
                "linkId": 4237,
                "linkUrl": "/topic/4237",
                "linkType": 6,
                "id": 0,
                "sPicUrl": "http://p.yhres.com/topic/2017/02/21/156745_1487652066268.jpg-ssq75"
              },
              {
                "actual": false,
                "xsort": 7,
                "schemeUrl": "yhouse://topic/4137",
                "pvUrl": null,
                "description": null,
                "title": "茶餐厅的灵魂搭档居然是TA",
                "linkName": "TOPIC",
                "picUrl": "http://p.yhres.com/topic/2017/02/20/156745_1487554680710.jpg-q75",
                "linkId": 4137,
                "linkUrl": "/topic/4137",
                "linkType": 6,
                "id": 0,
                "sPicUrl": "http://p.yhres.com/topic/2017/02/20/156745_1487554680710.jpg-ssq75"
              }
            ]
          }
        ]
      }
    },
    "isEnd": 0,
    "nextPage": 2,
    "page": 1,
    "pageSize": 10,
    "pid": "186725,31799,190174,66483,5678,4752,139163,67799,14359,3949",
    "totalRows": 571
  },
  "detail": "",
  "message": "success"
}